<?xml version="1.0" encoding="UTF-8" standalone="no"?>
<!-- Created with Inkscape (http://www.inkscape.org/) -->

<svg
   xmlns:dc="http://purl.org/dc/elements/1.1/"
   xmlns:cc="http://creativecommons.org/ns#"
   xmlns:rdf="http://www.w3.org/1999/02/22-rdf-syntax-ns#"
   xmlns:svg="http://www.w3.org/2000/svg"
   xmlns="http://www.w3.org/2000/svg"
   xmlns:sodipodi="http://sodipodi.sourceforge.net/DTD/sodipodi-0.dtd"
   xmlns:inkscape="http://www.inkscape.org/namespaces/inkscape"
   width="210mm"
   height="297mm"
   viewBox="0 0 210 297"
   version="1.1"
   id="svg8"
   inkscape:version="0.92.5 (2060ec1f9f, 2020-04-08)"
   sodipodi:docname="touchcontrols.svg">
  <defs
     id="defs2" />
  <sodipodi:namedview
     id="base"
     pagecolor="#ffffff"
     bordercolor="#666666"
     borderopacity="1.0"
     inkscape:pageopacity="0.0"
     inkscape:pageshadow="2"
     inkscape:zoom="0.98994949"
     inkscape:cx="151.92002"
     inkscape:cy="725.19769"
     inkscape:document-units="mm"
     inkscape:current-layer="layer1"
     showgrid="false"
     inkscape:window-width="1920"
     inkscape:window-height="1015"
     inkscape:window-x="0"
     inkscape:window-y="0"
     inkscape:window-maximized="1" />
  <metadata
     id="metadata5">
    <rdf:RDF>
      <cc:Work
         rdf:about="">
        <dc:format>image/svg+xml</dc:format>
        <dc:type
           rdf:resource="http://purl.org/dc/dcmitype/StillImage" />
        <dc:title></dc:title>
      </cc:Work>
    </rdf:RDF>
  </metadata>
  <g
     inkscape:label="Ebene 1"
     inkscape:groupmode="layer"
     id="layer1">
    <circle
       style="opacity:0.98999999;fill:#00ffff;fill-opacity:1;stroke:#7c0000;stroke-width:0.27214357;stroke-opacity:1"
       id="path4804"
       cx="108.64506"
       cy="72.627228"
       r="14.295139" />
    <circle
       style="opacity:0.98999999;fill:#00ffff;fill-opacity:1;stroke:#7c0000;stroke-width:0.27214357;stroke-opacity:1"
       id="path4804-7"
       cx="109.04597"
       cy="113.1293"
       r="14.295139" />
    <circle
       style="opacity:0.98999999;fill:#00ffff;fill-opacity:1;stroke:#7c0000;stroke-width:0.27214357;stroke-opacity:1"
       id="path4804-5"
       cx="130.16026"
       cy="92.806091"
       r="14.295139" />
    <circle
       style="opacity:0.98999999;fill:#00ffff;fill-opacity:1;stroke:#7c0000;stroke-width:0.27214357;stroke-opacity:1"
       id="path4804-3"
       cx="87.664406"
       cy="92.816826"
       r="14.295139" />
  </g>
</svg>
